<?xml version="1.0" encoding="UTF-8"?>
<!-- Created with Inkscape (http://www.inkscape.org/) -->
<svg width="8.4531mm" height="8.795mm" version="1.1" viewBox="0 0 8.4531 8.795" xmlns="http://www.w3.org/2000/svg">
 <g transform="translate(-113.93 -82.315)">
  <path d="m114.5 82.315c-0.18492-8.5e-4 -0.34588 0.0967-0.43841 0.21394-0.0931 0.11792-0.14013 0.26018-0.12528 0.42016l-2e-3 -0.0365c1.6e-4 2.5397-3.3e-4 5.0796 2.4e-4 7.6195-2e-3 0.33404 0.26868 0.62475 0.63973 0.57152a0.39463 0.39463 0 0 0 0.045-9e-3c0.18695-0.0495 0.27974-0.12682 0.30958-0.14046a0.39463 0.39463 0 0 0 0.0186-9e-3c2.3755-1.2406 4.7521-2.4798 7.1274-3.7214a0.39463 0.39463 0 0 0 0.0118-6e-3c0.41083-0.23284 0.39697-0.81195-0.0251-1.0244-2.4373-1.2722-4.8745-2.5449-7.312-3.817a0.39463 0.39463 0 0 0-0.0172-8e-3c-0.0598-0.0276-0.13905-0.0521-0.23267-0.0523z" stop-color="#000000" stroke-width=".019898"/>
 </g>
</svg>
